<?xml version="1.0" encoding="utf-8"?>
<!DOCTYPE eagle SYSTEM "eagle.dtd">
<eagle version="7.6.0">
<drawing>
<settings>
<setting alwaysvectorfont="no"/>
<setting verticaltext="up"/>
</settings>
<grid distance="0.1" unitdist="inch" unit="mil" style="lines" multiple="1" display="no" altdistance="0.01" altunitdist="inch" altunit="inch"/>
<layers>
<layer number="1" name="Top" color="4" fill="1" visible="yes" active="yes"/>
<layer number="2" name="Route2" color="1" fill="3" visible="no" active="yes"/>
<layer number="3" name="Route3" color="4" fill="3" visible="no" active="yes"/>
<layer number="4" name="Route4" color="1" fill="4" visible="no" active="yes"/>
<layer number="5" name="Route5" color="4" fill="4" visible="no" active="yes"/>
<layer number="6" name="Route6" color="1" fill="8" visible="no" active="yes"/>
<layer number="7" name="Route7" color="4" fill="8" visible="no" active="yes"/>
<layer number="8" name="Route8" color="1" fill="2" visible="no" active="yes"/>
<layer number="9" name="Route9" color="4" fill="2" visible="no" active="yes"/>
<layer number="10" name="Route10" color="1" fill="7" visible="no" active="yes"/>
<layer number="11" name="Route11" color="4" fill="7" visible="no" active="yes"/>
<layer number="12" name="Route12" color="1" fill="5" visible="no" active="yes"/>
<layer number="13" name="Route13" color="4" fill="5" visible="no" active="yes"/>
<layer number="14" name="Route14" color="1" fill="6" visible="no" active="yes"/>
<layer number="15" name="Route15" color="4" fill="6" visible="no" active="yes"/>
<layer number="16" name="Bottom" color="1" fill="1" visible="yes" active="yes"/>
<layer number="17" name="Pads" color="2" fill="1" visible="yes" active="yes"/>
<layer number="18" name="Vias" color="2" fill="1" visible="yes" active="yes"/>
<layer number="19" name="Unrouted" color="6" fill="1" visible="yes" active="yes"/>
<layer number="20" name="Dimension" color="15" fill="1" visible="yes" active="yes"/>
<layer number="21" name="tPlace" color="7" fill="1" visible="yes" active="yes"/>
<layer number="22" name="bPlace" color="7" fill="1" visible="yes" active="yes"/>
<layer number="23" name="tOrigins" color="15" fill="1" visible="yes" active="yes"/>
<layer number="24" name="bOrigins" color="15" fill="1" visible="yes" active="yes"/>
<layer number="25" name="tNames" color="7" fill="1" visible="yes" active="yes"/>
<layer number="26" name="bNames" color="7" fill="1" visible="yes" active="yes"/>
<layer number="27" name="tValues" color="7" fill="1" visible="yes" active="yes"/>
<layer number="28" name="bValues" color="7" fill="1" visible="yes" active="yes"/>
<layer number="29" name="tStop" color="7" fill="3" visible="yes" active="yes"/>
<layer number="30" name="bStop" color="7" fill="6" visible="no" active="yes"/>
<layer number="31" name="tCream" color="7" fill="4" visible="yes" active="yes"/>
<layer number="32" name="bCream" color="7" fill="5" visible="no" active="yes"/>
<layer number="33" name="tFinish" color="6" fill="3" visible="no" active="yes"/>
<layer number="34" name="bFinish" color="6" fill="6" visible="no" active="yes"/>
<layer number="35" name="tGlue" color="7" fill="4" visible="no" active="yes"/>
<layer number="36" name="bGlue" color="7" fill="5" visible="no" active="yes"/>
<layer number="37" name="tTest" color="7" fill="1" visible="no" active="yes"/>
<layer number="38" name="bTest" color="7" fill="1" visible="no" active="yes"/>
<layer number="39" name="tKeepout" color="4" fill="11" visible="yes" active="yes"/>
<layer number="40" name="bKeepout" color="1" fill="11" visible="yes" active="yes"/>
<layer number="41" name="tRestrict" color="4" fill="10" visible="yes" active="yes"/>
<layer number="42" name="bRestrict" color="1" fill="10" visible="yes" active="yes"/>
<layer number="43" name="vRestrict" color="2" fill="10" visible="yes" active="yes"/>
<layer number="44" name="Drills" color="7" fill="1" visible="no" active="yes"/>
<layer number="45" name="Holes" color="7" fill="1" visible="no" active="yes"/>
<layer number="46" name="Milling" color="3" fill="1" visible="no" active="yes"/>
<layer number="47" name="Measures" color="7" fill="1" visible="no" active="yes"/>
<layer number="48" name="Document" color="7" fill="1" visible="yes" active="yes"/>
<layer number="49" name="Reference" color="7" fill="1" visible="yes" active="yes"/>
<layer number="51" name="tDocu" color="7" fill="1" visible="yes" active="yes"/>
<layer number="52" name="bDocu" color="7" fill="1" visible="yes" active="yes"/>
<layer number="90" name="Modules" color="5" fill="1" visible="yes" active="yes"/>
<layer number="91" name="Nets" color="2" fill="1" visible="yes" active="yes"/>
<layer number="92" name="Busses" color="1" fill="1" visible="yes" active="yes"/>
<layer number="93" name="Pins" color="2" fill="1" visible="yes" active="yes"/>
<layer number="94" name="Symbols" color="4" fill="1" visible="yes" active="yes"/>
<layer number="95" name="Names" color="7" fill="1" visible="yes" active="yes"/>
<layer number="96" name="Values" color="7" fill="1" visible="yes" active="yes"/>
<layer number="97" name="Info" color="7" fill="1" visible="yes" active="yes"/>
<layer number="98" name="Guide" color="6" fill="1" visible="yes" active="yes"/>
</layers>
<library>
<packages>
<package name="DSS0012A">
<smd name="1" x="-0.949996875" y="1.25" dx="0.25" dy="0.5" layer="1" rot="R90"/>
<smd name="2" x="-0.949996875" y="0.75" dx="0.25" dy="0.5" layer="1" rot="R90"/>
<smd name="3" x="-0.949996875" y="0.25" dx="0.25" dy="0.5" layer="1" rot="R90"/>
<smd name="4" x="-0.949996875" y="-0.25" dx="0.25" dy="0.5" layer="1" rot="R90"/>
<smd name="5" x="-0.949996875" y="-0.75" dx="0.25" dy="0.5" layer="1" rot="R90"/>
<smd name="6" x="-0.949996875" y="-1.25" dx="0.25" dy="0.5" layer="1" rot="R90"/>
<smd name="7" x="0.95" y="-1.25" dx="0.25" dy="0.5" layer="1" rot="R90"/>
<smd name="8" x="0.95" y="-0.75" dx="0.25" dy="0.5" layer="1" rot="R90"/>
<smd name="9" x="0.95" y="-0.25" dx="0.25" dy="0.5" layer="1" rot="R90"/>
<smd name="10" x="0.95" y="0.25" dx="0.25" dy="0.5" layer="1" rot="R90"/>
<smd name="11" x="0.95" y="0.75" dx="0.25" dy="0.5" layer="1" rot="R90"/>
<smd name="12" x="0.95" y="1.25" dx="0.25" dy="0.5" layer="1" rot="R90"/>
<smd name="13" x="0.000003125" y="0" dx="0.9" dy="2" layer="1"/>
<smd name="V" x="0" y="0" dx="0.5" dy="0.5" layer="1" roundness="100"/>
<wire x1="-1.0414" y1="1.7018" x2="-0.5334" y2="1.7018" width="0.2032" layer="21"/>
<wire x1="0.889" y1="1.7018" x2="1.0414" y2="1.7018" width="0.2032" layer="21"/>
<wire x1="0.889" y1="-1.7018" x2="1.0414" y2="-1.7018" width="0.2032" layer="21"/>
<wire x1="-1.0414" y1="-1.7018" x2="-0.889" y2="-1.7018" width="0.2032" layer="21"/>
<wire x1="-1.0414" y1="-1.5494" x2="1.0414" y2="-1.5494" width="0.1524" layer="51"/>
<wire x1="-1.0414" y1="1.5494" x2="1.0414" y2="1.5494" width="0.1524" layer="51"/>
<wire x1="1.0414" y1="-1.5494" x2="1.0414" y2="1.5494" width="0.1524" layer="51"/>
<wire x1="-1.0414" y1="-1.5494" x2="-1.0414" y2="1.5494" width="0.1524" layer="51"/>
<wire x1="-0.4064" y1="1.1176" x2="-0.7874" y2="1.1176" width="0.1016" layer="51" curve="-180"/>
<wire x1="-0.7874" y1="1.1176" x2="-0.4064" y2="1.1176" width="0.1016" layer="51" curve="-180"/>
<text x="-0.889" y="-1.397" size="1.27" layer="51" ratio="6" rot="SR0">.Designator</text>
<polygon width="0.0254" layer="31">
<vertex x="-0.426996875" y="-0.8945"/>
<vertex x="0.427003125" y="-0.8945"/>
<vertex x="0.427003125" y="0.894503125"/>
<vertex x="-0.426996875" y="0.894503125"/>
</polygon>
<polygon width="0.0254" layer="1">
<vertex x="-0.375" y="-1.5"/>
<vertex x="-0.375" y="-1"/>
<vertex x="-0.45" y="-1"/>
<vertex x="-0.45" y="1"/>
<vertex x="-0.375" y="1"/>
<vertex x="-0.375" y="1.5"/>
<vertex x="-0.125" y="1.5"/>
<vertex x="-0.125" y="1"/>
<vertex x="0.12500625" y="1"/>
<vertex x="0.12500625" y="1.5"/>
<vertex x="0.37500625" y="1.5"/>
<vertex x="0.37500625" y="1"/>
<vertex x="0.450003125" y="1"/>
<vertex x="0.450003125" y="-1"/>
<vertex x="0.37500625" y="-1"/>
<vertex x="0.37500625" y="-1.5"/>
<vertex x="0.12500625" y="-1.5"/>
<vertex x="0.12500625" y="-1"/>
<vertex x="-0.125" y="-1"/>
<vertex x="-0.125" y="-1.5"/>
</polygon>
<polygon width="0.0254" layer="29">
<vertex x="-0.375" y="-1.5508"/>
<vertex x="-0.3849125" y="-1.549825"/>
<vertex x="-0.394440625" y="-1.546934375"/>
<vertex x="-0.403221875" y="-1.5422375"/>
<vertex x="-0.410921875" y="-1.53591875"/>
<vertex x="-0.4172375" y="-1.528221875"/>
<vertex x="-0.421934375" y="-1.519440625"/>
<vertex x="-0.424825" y="-1.509909375"/>
<vertex x="-0.4258" y="-1.5"/>
<vertex x="-0.4258" y="-1.0508"/>
<vertex x="-0.45" y="-1.0508"/>
<vertex x="-0.459909375" y="-1.049825"/>
<vertex x="-0.469440625" y="-1.046934375"/>
<vertex x="-0.478221875" y="-1.0422375"/>
<vertex x="-0.48591875" y="-1.035921875"/>
<vertex x="-0.4922375" y="-1.028221875"/>
<vertex x="-0.496934375" y="-1.019440625"/>
<vertex x="-0.499825" y="-1.0099125"/>
<vertex x="-0.5008" y="-1"/>
<vertex x="-0.5008" y="1"/>
<vertex x="-0.499825" y="1.0099125"/>
<vertex x="-0.496934375" y="1.019440625"/>
<vertex x="-0.4922375" y="1.028221875"/>
<vertex x="-0.48591875" y="1.035921875"/>
<vertex x="-0.478221875" y="1.0422375"/>
<vertex x="-0.469440625" y="1.046934375"/>
<vertex x="-0.459909375" y="1.049825"/>
<vertex x="-0.45" y="1.0508"/>
<vertex x="-0.4258" y="1.0508"/>
<vertex x="-0.4258" y="1.5"/>
<vertex x="-0.424825" y="1.509909375"/>
<vertex x="-0.421934375" y="1.519440625"/>
<vertex x="-0.4172375" y="1.528221875"/>
<vertex x="-0.410921875" y="1.53591875"/>
<vertex x="-0.403221875" y="1.5422375"/>
<vertex x="-0.394440625" y="1.546934375"/>
<vertex x="-0.3849125" y="1.549825"/>
<vertex x="-0.375" y="1.5508"/>
<vertex x="-0.125" y="1.5508"/>
<vertex x="-0.115090625" y="1.549825"/>
<vertex x="-0.105559375" y="1.546934375"/>
<vertex x="-0.096778125" y="1.5422375"/>
<vertex x="-0.08908125" y="1.53591875"/>
<vertex x="-0.0827625" y="1.528221875"/>
<vertex x="-0.078065625" y="1.519440625"/>
<vertex x="-0.075175" y="1.509909375"/>
<vertex x="-0.0742" y="1.5"/>
<vertex x="-0.0742" y="1.0508"/>
<vertex x="0.07420625" y="1.0508"/>
<vertex x="0.07420625" y="1.5"/>
<vertex x="0.07518125" y="1.509909375"/>
<vertex x="0.078071875" y="1.519440625"/>
<vertex x="0.08276875" y="1.528221875"/>
<vertex x="0.089084375" y="1.53591875"/>
<vertex x="0.096784375" y="1.5422375"/>
<vertex x="0.105565625" y="1.546934375"/>
<vertex x="0.11509375" y="1.549825"/>
<vertex x="0.12500625" y="1.5508"/>
<vertex x="0.37500625" y="1.5508"/>
<vertex x="0.384915625" y="1.549825"/>
<vertex x="0.394446875" y="1.546934375"/>
<vertex x="0.403228125" y="1.5422375"/>
<vertex x="0.410925" y="1.53591875"/>
<vertex x="0.41724375" y="1.528221875"/>
<vertex x="0.421940625" y="1.519440625"/>
<vertex x="0.42483125" y="1.509909375"/>
<vertex x="0.42580625" y="1.5"/>
<vertex x="0.42580625" y="1.0508"/>
<vertex x="0.450003125" y="1.0508"/>
<vertex x="0.459915625" y="1.049825"/>
<vertex x="0.469446875" y="1.046934375"/>
<vertex x="0.478225" y="1.0422375"/>
<vertex x="0.485925" y="1.035921875"/>
<vertex x="0.492240625" y="1.028221875"/>
<vertex x="0.4969375" y="1.019440625"/>
<vertex x="0.499828125" y="1.0099125"/>
<vertex x="0.500803125" y="1"/>
<vertex x="0.500803125" y="-1"/>
<vertex x="0.499828125" y="-1.0099125"/>
<vertex x="0.4969375" y="-1.019440625"/>
<vertex x="0.492240625" y="-1.028221875"/>
<vertex x="0.485925" y="-1.035921875"/>
<vertex x="0.478225" y="-1.0422375"/>
<vertex x="0.469446875" y="-1.046934375"/>
<vertex x="0.459915625" y="-1.049825"/>
<vertex x="0.450003125" y="-1.0508"/>
<vertex x="0.42580625" y="-1.0508"/>
<vertex x="0.42580625" y="-1.5"/>
<vertex x="0.42483125" y="-1.509909375"/>
<vertex x="0.421940625" y="-1.519440625"/>
<vertex x="0.41724375" y="-1.528221875"/>
<vertex x="0.410925" y="-1.53591875"/>
<vertex x="0.403228125" y="-1.5422375"/>
<vertex x="0.394446875" y="-1.546934375"/>
<vertex x="0.384915625" y="-1.549825"/>
<vertex x="0.37500625" y="-1.5508"/>
<vertex x="0.12500625" y="-1.5508"/>
<vertex x="0.11509375" y="-1.549825"/>
<vertex x="0.105565625" y="-1.546934375"/>
<vertex x="0.096784375" y="-1.5422375"/>
<vertex x="0.089084375" y="-1.53591875"/>
<vertex x="0.08276875" y="-1.528221875"/>
<vertex x="0.078071875" y="-1.519440625"/>
<vertex x="0.07518125" y="-1.509909375"/>
<vertex x="0.07420625" y="-1.5"/>
<vertex x="0.07420625" y="-1.0508"/>
<vertex x="-0.0742" y="-1.0508"/>
<vertex x="-0.0742" y="-1.5"/>
<vertex x="-0.075175" y="-1.509909375"/>
<vertex x="-0.078065625" y="-1.519440625"/>
<vertex x="-0.0827625" y="-1.528221875"/>
<vertex x="-0.08908125" y="-1.53591875"/>
<vertex x="-0.096778125" y="-1.5422375"/>
<vertex x="-0.105559375" y="-1.546934375"/>
<vertex x="-0.115090625" y="-1.549825"/>
<vertex x="-0.125" y="-1.5508"/>
</polygon>
</package>
</packages>
<symbols>
<symbol name="TPS62745DSS">
<pin name="VIN" x="-22.86" y="12.7" length="middle" direction="pwr"/>
<pin name="SW" x="22.86" y="12.7" length="middle" direction="pwr" rot="R180"/>
<pin name="GND" x="22.86" y="-12.7" length="middle" direction="pwr" rot="R180"/>
<pin name="EN_VIN_SW" x="-22.86" y="2.54" length="middle" direction="in"/>
<pin name="VOUT" x="22.86" y="2.54" length="middle" direction="in" rot="R180"/>
<pin name="VIN_SW" x="22.86" y="-7.62" length="middle" direction="pwr" rot="R180"/>
<pin name="PG" x="22.86" y="-2.54" length="middle" direction="oc" rot="R180"/>
<pin name="VSEL4" x="-22.86" y="-15.24" length="middle" direction="in"/>
<pin name="VSEL3" x="-22.86" y="-12.7" length="middle" direction="in"/>
<pin name="VSEL2" x="-22.86" y="-10.16" length="middle" direction="in"/>
<pin name="VSEL1" x="-22.86" y="-7.62" length="middle" direction="in"/>
<pin name="EN" x="-22.86" y="7.62" length="middle" direction="in"/>
<pin name="PAD" x="22.86" y="-15.24" length="middle" direction="pas" rot="R180"/>
<wire x1="-17.78" y1="-17.78" x2="17.78" y2="-17.78" width="0.2032" layer="94"/>
<wire x1="17.78" y1="-17.78" x2="17.78" y2="17.78" width="0.2032" layer="94"/>
<wire x1="17.78" y1="17.78" x2="-17.78" y2="17.78" width="0.2032" layer="94"/>
<wire x1="-17.78" y1="17.78" x2="-17.78" y2="-17.78" width="0.2032" layer="94"/>
<text x="-4.7244" y="1.4986" size="2.0828" layer="95" ratio="6" rot="SR0">&gt;Name</text>
<text x="-5.3594" y="-1.0414" size="2.0828" layer="96" ratio="6" rot="SR0">&gt;Value</text>
</symbol>
</symbols>
<devicesets>
<deviceset name="TPS62745DSSR" prefix="U">
<gates>
<gate name="A" symbol="TPS62745DSS" x="0" y="0"/>
</gates>
<devices>
<device name="" package="DSS0012A">
<connects>
<connect gate="A" pin="EN" pad="12"/>
<connect gate="A" pin="EN_VIN_SW" pad="4"/>
<connect gate="A" pin="GND" pad="3"/>
<connect gate="A" pin="PAD" pad="13"/>
<connect gate="A" pin="PG" pad="7"/>
<connect gate="A" pin="SW" pad="2"/>
<connect gate="A" pin="VIN" pad="1"/>
<connect gate="A" pin="VIN_SW" pad="6"/>
<connect gate="A" pin="VOUT" pad="5"/>
<connect gate="A" pin="VSEL1" pad="11"/>
<connect gate="A" pin="VSEL2" pad="10"/>
<connect gate="A" pin="VSEL3" pad="9"/>
<connect gate="A" pin="VSEL4" pad="8"/>
</connects>
<technologies>
<technology name="">
<attribute name="ALTERNATEPARTNUMBER" value="TPS62745DSST" constant="no"/>
<attribute name="APPLICATION_BUILDNUMBER" value="*" constant="no"/>
<attribute name="COMPTYPE" value="IC" constant="no"/>
<attribute name="MANUFACTURER" value="Texas Instruments" constant="no"/>
<attribute name="MOUNTTYPE" value="SMT" constant="no"/>
<attribute name="PACKAGEREFERENCE" value="DSS0012A" constant="no"/>
<attribute name="PARTNUMBER" value="TPS62745DSSR" constant="no"/>
<attribute name="PIN_COUNT" value="13" constant="no"/>
<attribute name="REFDES" value="RefDes" constant="no"/>
<attribute name="ROHS" value="Y" constant="no"/>
<attribute name="TYPE" value="TYPE" constant="no"/>
<attribute name="VALUE" value="Value" constant="no"/>
</technology>
</technologies>
</device>
</devices>
</deviceset>
</devicesets>
</library>
</drawing>
</eagle>
